EESchema Schematic File Version 4
LIBS:LEDBoard-cache
EELAYER 26 0
EELAYER END
$Descr A4 11693 8268
encoding utf-8
Sheet 1 1
Title ""
Date ""
Rev ""
Comp ""
Comment1 ""
Comment2 ""
Comment3 ""
Comment4 ""
$EndDescr
$Comp
L power:+12V #PWR0101
U 1 1 5C72BFCD
P 1050 1050
F 0 "#PWR0101" H 1050 900 50  0001 C CNN
F 1 "+12V" H 1065 1223 50  0000 C CNN
F 2 "" H 1050 1050 50  0001 C CNN
F 3 "" H 1050 1050 50  0001 C CNN
	1    1050 1050
	1    0    0    -1  
$EndComp
$Comp
L power:GND #PWR0102
U 1 1 5C72C02E
P 1050 1550
F 0 "#PWR0102" H 1050 1300 50  0001 C CNN
F 1 "GND" H 1055 1377 50  0000 C CNN
F 2 "" H 1050 1550 50  0001 C CNN
F 3 "" H 1050 1550 50  0001 C CNN
	1    1050 1550
	1    0    0    -1  
$EndComp
$Comp
L Connector:Conn_Coaxial_Power J6
U 1 1 5C72C210
P 1050 1250
F 0 "J6" H 1138 1246 50  0000 L CNN
F 1 "PWR2" H 1138 1155 50  0000 L CNN
F 2 "copperforge:OSTYK51102030" H 1050 1200 50  0001 C CNN
F 3 "~" H 1050 1200 50  0001 C CNN
	1    1050 1250
	1    0    0    -1  
$EndComp
Wire Wire Line
	1050 1050 1050 1100
Wire Wire Line
	1050 1450 1050 1500
$Comp
L Mechanical:Heatsink HS2
U 1 1 5C72CB25
P 3200 850
F 0 "HS2" H 3341 971 50  0000 L CNN
F 1 " 577202B00000G " H 3341 880 50  0000 L CNN
F 2 "copperforge:Heatsink_5770" H 3212 850 50  0001 C CNN
F 3 "" H 3212 850 50  0001 C CNN
	1    3200 850 
	1    0    0    -1  
$EndComp
$Comp
L Transistor_FET:IRLB8721PBF Q1
U 1 1 5C72CBC6
P 6200 3000
F 0 "Q1" V 6450 3000 50  0000 C CNN
F 1 "IRLB8743" V 6541 3000 50  0000 C CNN
F 2 "Package_TO_SOT_THT:TO-220-3_Vertical" H 6450 2925 50  0001 L CIN
F 3 "http://www.infineon.com/dgdl/irlb8721pbf.pdf?fileId=5546d462533600a40153566056732591" H 6200 3000 50  0001 L CNN
	1    6200 3000
	0    1    1    0   
$EndComp
$Comp
L Mechanical:Heatsink HS1
U 1 1 5C72CE4E
P 2200 850
F 0 "HS1" H 2341 971 50  0000 L CNN
F 1 " 577202B00000G " H 2341 880 50  0000 L CNN
F 2 "copperforge:Heatsink_5770" H 2212 850 50  0001 C CNN
F 3 "" H 2212 850 50  0001 C CNN
	1    2200 850 
	1    0    0    -1  
$EndComp
$Comp
L Mechanical:Heatsink HS3
U 1 1 5C72CE8E
P 4200 850
F 0 "HS3" H 4341 971 50  0000 L CNN
F 1 " 577202B00000G " H 4341 880 50  0000 L CNN
F 2 "copperforge:Heatsink_5770" H 4212 850 50  0001 C CNN
F 3 "" H 4212 850 50  0001 C CNN
	1    4200 850 
	1    0    0    -1  
$EndComp
$Comp
L MCU_ST_STM8:STM8S003F3P U5
U 1 1 5C72D0BB
P 9300 2000
F 0 "U5" H 9350 1700 50  0000 C CNN
F 1 "STM8S003F3P" H 9400 1550 50  0000 C CNN
F 2 "Package_SO:TSSOP-20_4.4x6.5mm_P0.65mm" H 9350 3100 50  0001 L CNN
F 3 "http://www.st.com/st-web-ui/static/active/en/resource/technical/document/datasheet/DM00024550.pdf" H 9250 1600 50  0001 C CNN
	1    9300 2000
	1    0    0    -1  
$EndComp
Text Label 8550 1500 2    50   ~ 0
LED_STATUS
Text Label 8550 1700 2    50   ~ 0
SCL
Text Label 8550 1800 2    50   ~ 0
SDA
Text Label 8550 2200 2    50   ~ 0
SCK
Text Label 8550 2300 2    50   ~ 0
MOSI
Text Label 8550 2400 2    50   ~ 0
MISO
Text Label 10050 1700 0    50   ~ 0
SWIM
Text Label 10050 1800 0    50   ~ 0
BLUE_SWITCH
Text Label 10050 1900 0    50   ~ 0
GREEN_SWITCH
Text Label 10050 2000 0    50   ~ 0
RED_SWITCH
Text Label 10050 2100 0    50   ~ 0
TX
Text Label 10050 2200 0    50   ~ 0
RX
Wire Wire Line
	8700 1500 8550 1500
Wire Wire Line
	8550 1700 8700 1700
Wire Wire Line
	8700 1800 8550 1800
Wire Wire Line
	8550 2200 8700 2200
Wire Wire Line
	8700 2300 8550 2300
Wire Wire Line
	8550 2400 8700 2400
Wire Wire Line
	9900 2200 10050 2200
Wire Wire Line
	10050 2100 9900 2100
Wire Wire Line
	9900 1800 10050 1800
Wire Wire Line
	10050 1700 9900 1700
$Comp
L Device:C_Small C15
U 1 1 5C72E96F
P 8450 2800
F 0 "C15" H 8542 2846 50  0000 L CNN
F 1 "1uF" H 8542 2755 50  0000 L CNN
F 2 "Capacitor_SMD:C_0805_2012Metric_Pad1.15x1.40mm_HandSolder" H 8450 2800 50  0001 C CNN
F 3 "~" H 8450 2800 50  0001 C CNN
	1    8450 2800
	1    0    0    -1  
$EndComp
Wire Wire Line
	8700 2700 8450 2700
$Comp
L power:GND #PWR0103
U 1 1 5C72EC60
P 8450 2950
F 0 "#PWR0103" H 8450 2700 50  0001 C CNN
F 1 "GND" H 8455 2777 50  0000 C CNN
F 2 "" H 8450 2950 50  0001 C CNN
F 3 "" H 8450 2950 50  0001 C CNN
	1    8450 2950
	1    0    0    -1  
$EndComp
Wire Wire Line
	8450 2950 8450 2900
Connection ~ 1050 1100
Wire Wire Line
	1050 1100 1050 1150
Connection ~ 1050 1500
Wire Wire Line
	1050 1500 1050 1550
$Comp
L Device:C_Small C2
U 1 1 5C72FFFA
P 1400 1300
F 0 "C2" H 1492 1346 50  0000 L CNN
F 1 "100uF" H 1492 1255 50  0000 L CNN
F 2 "Capacitor_THT:CP_Radial_D10.0mm_P5.00mm" H 1400 1300 50  0001 C CNN
F 3 "~" H 1400 1300 50  0001 C CNN
	1    1400 1300
	1    0    0    -1  
$EndComp
$Comp
L Device:C_Small C4
U 1 1 5C730078
P 1800 1300
F 0 "C4" H 1892 1346 50  0000 L CNN
F 1 "500uF" H 1892 1255 50  0000 L CNN
F 2 "Capacitor_THT:CP_Radial_D10.0mm_P5.00mm" H 1800 1300 50  0001 C CNN
F 3 "~" H 1800 1300 50  0001 C CNN
	1    1800 1300
	1    0    0    -1  
$EndComp
Wire Wire Line
	1800 1500 1800 1400
Wire Wire Line
	1050 1500 1400 1500
Wire Wire Line
	1800 1200 1800 1100
Wire Wire Line
	1050 1100 1400 1100
Wire Wire Line
	1400 1200 1400 1100
Connection ~ 1400 1100
Wire Wire Line
	1400 1100 1800 1100
Wire Wire Line
	1400 1400 1400 1500
Connection ~ 1400 1500
Wire Wire Line
	1400 1500 1800 1500
$Comp
L power:GND #PWR0104
U 1 1 5C7314B8
P 9300 3050
F 0 "#PWR0104" H 9300 2800 50  0001 C CNN
F 1 "GND" H 9305 2877 50  0000 C CNN
F 2 "" H 9300 3050 50  0001 C CNN
F 3 "" H 9300 3050 50  0001 C CNN
	1    9300 3050
	1    0    0    -1  
$EndComp
Wire Wire Line
	9300 3050 9300 3000
$Comp
L Regulator_Linear:NCP1117-3.3_SOT223 U1
U 1 1 5C7326B6
P 1400 2250
F 0 "U1" H 1400 2492 50  0000 C CNN
F 1 "NCP1117-3.3_SOT223" H 1400 2401 50  0000 C CNN
F 2 "Package_TO_SOT_SMD:SOT-223-3_TabPin2" H 1400 2450 50  0001 C CNN
F 3 "http://www.onsemi.com/pub_link/Collateral/NCP1117-D.PDF" H 1500 2000 50  0001 C CNN
	1    1400 2250
	1    0    0    -1  
$EndComp
$Comp
L power:GND #PWR0105
U 1 1 5C73283E
P 1400 2650
F 0 "#PWR0105" H 1400 2400 50  0001 C CNN
F 1 "GND" H 1405 2477 50  0000 C CNN
F 2 "" H 1400 2650 50  0001 C CNN
F 3 "" H 1400 2650 50  0001 C CNN
	1    1400 2650
	1    0    0    -1  
$EndComp
Wire Wire Line
	1400 2650 1400 2550
$Comp
L power:+3V3 #PWR0106
U 1 1 5C732CF3
P 2000 2250
F 0 "#PWR0106" H 2000 2100 50  0001 C CNN
F 1 "+3V3" H 2015 2423 50  0000 C CNN
F 2 "" H 2000 2250 50  0001 C CNN
F 3 "" H 2000 2250 50  0001 C CNN
	1    2000 2250
	1    0    0    -1  
$EndComp
Wire Wire Line
	2000 2250 1750 2250
Wire Wire Line
	1100 2250 950  2250
$Comp
L power:+12V #PWR0107
U 1 1 5C7336A6
P 800 2250
F 0 "#PWR0107" H 800 2100 50  0001 C CNN
F 1 "+12V" H 815 2423 50  0000 C CNN
F 2 "" H 800 2250 50  0001 C CNN
F 3 "" H 800 2250 50  0001 C CNN
	1    800  2250
	1    0    0    -1  
$EndComp
$Comp
L Device:C_Small C1
U 1 1 5C733812
P 950 2500
F 0 "C1" H 1042 2546 50  0000 L CNN
F 1 "10uF" H 1042 2455 50  0000 L CNN
F 2 "Capacitor_SMD:C_0805_2012Metric_Pad1.15x1.40mm_HandSolder" H 950 2500 50  0001 C CNN
F 3 "~" H 950 2500 50  0001 C CNN
	1    950  2500
	1    0    0    -1  
$EndComp
$Comp
L Device:C_Small C3
U 1 1 5C7338AC
P 1750 2500
F 0 "C3" H 1842 2546 50  0000 L CNN
F 1 "10uF" H 1842 2455 50  0000 L CNN
F 2 "Capacitor_SMD:C_0805_2012Metric_Pad1.15x1.40mm_HandSolder" H 1750 2500 50  0001 C CNN
F 3 "~" H 1750 2500 50  0001 C CNN
	1    1750 2500
	1    0    0    -1  
$EndComp
$Comp
L Device:C_Small C5
U 1 1 5C7338FC
P 2100 2500
F 0 "C5" H 2192 2546 50  0000 L CNN
F 1 "1uF" H 2192 2455 50  0000 L CNN
F 2 "Capacitor_SMD:C_0805_2012Metric_Pad1.15x1.40mm_HandSolder" H 2100 2500 50  0001 C CNN
F 3 "~" H 2100 2500 50  0001 C CNN
	1    2100 2500
	1    0    0    -1  
$EndComp
Wire Wire Line
	1750 2400 1750 2250
Connection ~ 1750 2250
Wire Wire Line
	1750 2250 1700 2250
Wire Wire Line
	950  2400 950  2250
Connection ~ 950  2250
Wire Wire Line
	950  2250 800  2250
$Comp
L power:GND #PWR0108
U 1 1 5C734B70
P 2100 2700
F 0 "#PWR0108" H 2100 2450 50  0001 C CNN
F 1 "GND" H 2105 2527 50  0000 C CNN
F 2 "" H 2100 2700 50  0001 C CNN
F 3 "" H 2100 2700 50  0001 C CNN
	1    2100 2700
	1    0    0    -1  
$EndComp
$Comp
L power:GND #PWR0109
U 1 1 5C734BBF
P 1750 2700
F 0 "#PWR0109" H 1750 2450 50  0001 C CNN
F 1 "GND" H 1755 2527 50  0000 C CNN
F 2 "" H 1750 2700 50  0001 C CNN
F 3 "" H 1750 2700 50  0001 C CNN
	1    1750 2700
	1    0    0    -1  
$EndComp
$Comp
L power:GND #PWR0110
U 1 1 5C734C0E
P 950 2700
F 0 "#PWR0110" H 950 2450 50  0001 C CNN
F 1 "GND" H 955 2527 50  0000 C CNN
F 2 "" H 950 2700 50  0001 C CNN
F 3 "" H 950 2700 50  0001 C CNN
	1    950  2700
	1    0    0    -1  
$EndComp
Wire Wire Line
	1750 2700 1750 2600
Wire Wire Line
	2100 2600 2100 2700
Wire Wire Line
	950  2600 950  2700
$Comp
L power:+3V3 #PWR0111
U 1 1 5C736962
P 9300 900
F 0 "#PWR0111" H 9300 750 50  0001 C CNN
F 1 "+3V3" H 9315 1073 50  0000 C CNN
F 2 "" H 9300 900 50  0001 C CNN
F 3 "" H 9300 900 50  0001 C CNN
	1    9300 900 
	1    0    0    -1  
$EndComp
Wire Wire Line
	9300 900  9300 1000
$Comp
L Device:C_Small C14
U 1 1 5C737D84
P 8100 2700
F 0 "C14" H 8192 2746 50  0000 L CNN
F 1 "0.1uF" H 8192 2655 50  0000 L CNN
F 2 "Capacitor_SMD:C_0805_2012Metric_Pad1.15x1.40mm_HandSolder" H 8100 2700 50  0001 C CNN
F 3 "~" H 8100 2700 50  0001 C CNN
	1    8100 2700
	1    0    0    -1  
$EndComp
Wire Wire Line
	8100 2600 8700 2600
$Comp
L power:GND #PWR0112
U 1 1 5C7386F0
P 8100 2950
F 0 "#PWR0112" H 8100 2700 50  0001 C CNN
F 1 "GND" H 8105 2777 50  0000 C CNN
F 2 "" H 8100 2950 50  0001 C CNN
F 3 "" H 8100 2950 50  0001 C CNN
	1    8100 2950
	1    0    0    -1  
$EndComp
Wire Wire Line
	8100 2950 8100 2800
$Comp
L Device:C_Small C16
U 1 1 5C73B979
P 9700 1000
F 0 "C16" H 9792 1046 50  0000 L CNN
F 1 "0.1uF" H 9792 955 50  0000 L CNN
F 2 "Capacitor_SMD:C_0805_2012Metric_Pad1.15x1.40mm_HandSolder" H 9700 1000 50  0001 C CNN
F 3 "~" H 9700 1000 50  0001 C CNN
	1    9700 1000
	1    0    0    -1  
$EndComp
$Comp
L Device:C_Small C18
U 1 1 5C73BA3B
P 10150 1000
F 0 "C18" H 10242 1046 50  0000 L CNN
F 1 "1uF" H 10242 955 50  0000 L CNN
F 2 "Capacitor_SMD:C_0805_2012Metric_Pad1.15x1.40mm_HandSolder" H 10150 1000 50  0001 C CNN
F 3 "~" H 10150 1000 50  0001 C CNN
	1    10150 1000
	1    0    0    -1  
$EndComp
Wire Wire Line
	10150 900  9700 900 
Wire Wire Line
	9700 900  9300 900 
Connection ~ 9700 900 
Connection ~ 9300 900 
Wire Wire Line
	9700 1100 10150 1100
$Comp
L power:GND #PWR0113
U 1 1 5C73D806
P 10150 1100
F 0 "#PWR0113" H 10150 850 50  0001 C CNN
F 1 "GND" H 10155 927 50  0000 C CNN
F 2 "" H 10150 1100 50  0001 C CNN
F 3 "" H 10150 1100 50  0001 C CNN
	1    10150 1100
	1    0    0    -1  
$EndComp
Connection ~ 10150 1100
Wire Wire Line
	8000 1400 8700 1400
$Comp
L Device:C_Small C11
U 1 1 5C7443EA
P 7700 1750
F 0 "C11" H 7950 1700 50  0000 R CNN
F 1 "18pF" H 7950 1800 50  0000 R CNN
F 2 "Capacitor_SMD:C_0805_2012Metric_Pad1.15x1.40mm_HandSolder" H 7700 1750 50  0001 C CNN
F 3 "~" H 7700 1750 50  0001 C CNN
	1    7700 1750
	-1   0    0    1   
$EndComp
$Comp
L Device:C_Small C13
U 1 1 5C744506
P 8000 1750
F 0 "C13" H 7908 1704 50  0000 R CNN
F 1 "18pF" H 7908 1795 50  0000 R CNN
F 2 "Capacitor_SMD:C_0805_2012Metric_Pad1.15x1.40mm_HandSolder" H 8000 1750 50  0001 C CNN
F 3 "~" H 8000 1750 50  0001 C CNN
	1    8000 1750
	-1   0    0    1   
$EndComp
Wire Wire Line
	7700 1850 7850 1850
Wire Wire Line
	7850 1850 7850 1950
Connection ~ 7850 1850
Wire Wire Line
	7850 1850 8000 1850
$Comp
L power:GND #PWR0114
U 1 1 5C747301
P 7850 1950
F 0 "#PWR0114" H 7850 1700 50  0001 C CNN
F 1 "GND" H 7855 1777 50  0000 C CNN
F 2 "" H 7850 1950 50  0001 C CNN
F 3 "" H 7850 1950 50  0001 C CNN
	1    7850 1950
	1    0    0    -1  
$EndComp
$Comp
L Connector:Conn_01x04_Male J1
U 1 1 5C74EA51
P 900 3400
F 0 "J1" H 1006 3678 50  0000 C CNN
F 1 "UART" H 1006 3587 50  0000 C CNN
F 2 "Connector_PinSocket_2.54mm:PinSocket_1x04_P2.54mm_Vertical" H 900 3400 50  0001 C CNN
F 3 "~" H 900 3400 50  0001 C CNN
	1    900  3400
	1    0    0    -1  
$EndComp
$Comp
L power:+3V3 #PWR0115
U 1 1 5C74EB7B
P 1450 3300
F 0 "#PWR0115" H 1450 3150 50  0001 C CNN
F 1 "+3V3" H 1465 3473 50  0000 C CNN
F 2 "" H 1450 3300 50  0001 C CNN
F 3 "" H 1450 3300 50  0001 C CNN
	1    1450 3300
	1    0    0    -1  
$EndComp
Wire Wire Line
	1450 3300 1100 3300
$Comp
L power:GND #PWR0116
U 1 1 5C74F93C
P 1450 3600
F 0 "#PWR0116" H 1450 3350 50  0001 C CNN
F 1 "GND" H 1455 3427 50  0000 C CNN
F 2 "" H 1450 3600 50  0001 C CNN
F 3 "" H 1450 3600 50  0001 C CNN
	1    1450 3600
	1    0    0    -1  
$EndComp
Wire Wire Line
	1450 3600 1100 3600
Text Label 1450 3400 0    50   ~ 0
TX
Text Label 1450 3500 0    50   ~ 0
RX
Wire Wire Line
	1100 3400 1450 3400
Wire Wire Line
	1450 3500 1100 3500
$Comp
L Connector:Conn_01x04_Male J2
U 1 1 5C753DAE
P 900 4200
F 0 "J2" H 1006 4478 50  0000 C CNN
F 1 "I2C" H 1006 4387 50  0000 C CNN
F 2 "Connector_PinSocket_2.54mm:PinSocket_1x04_P2.54mm_Vertical" H 900 4200 50  0001 C CNN
F 3 "~" H 900 4200 50  0001 C CNN
	1    900  4200
	1    0    0    -1  
$EndComp
$Comp
L power:+3V3 #PWR0117
U 1 1 5C753DB4
P 1450 4100
F 0 "#PWR0117" H 1450 3950 50  0001 C CNN
F 1 "+3V3" H 1465 4273 50  0000 C CNN
F 2 "" H 1450 4100 50  0001 C CNN
F 3 "" H 1450 4100 50  0001 C CNN
	1    1450 4100
	1    0    0    -1  
$EndComp
Wire Wire Line
	1450 4100 1100 4100
$Comp
L power:GND #PWR0118
U 1 1 5C753DBB
P 1450 4400
F 0 "#PWR0118" H 1450 4150 50  0001 C CNN
F 1 "GND" H 1455 4227 50  0000 C CNN
F 2 "" H 1450 4400 50  0001 C CNN
F 3 "" H 1450 4400 50  0001 C CNN
	1    1450 4400
	1    0    0    -1  
$EndComp
Wire Wire Line
	1450 4400 1100 4400
Text Label 1450 4200 0    50   ~ 0
SCL
Text Label 1450 4300 0    50   ~ 0
SDA
Wire Wire Line
	1100 4200 1450 4200
Wire Wire Line
	1450 4300 1100 4300
$Comp
L Connector:Conn_01x05_Male J3
U 1 1 5C7595B7
P 900 5150
F 0 "J3" H 1006 5528 50  0000 C CNN
F 1 "SPI" H 1006 5437 50  0000 C CNN
F 2 "Connector_PinSocket_2.54mm:PinSocket_1x05_P2.54mm_Vertical" H 900 5150 50  0001 C CNN
F 3 "~" H 900 5150 50  0001 C CNN
	1    900  5150
	1    0    0    -1  
$EndComp
$Comp
L power:+3V3 #PWR0119
U 1 1 5C7595BD
P 1450 4950
F 0 "#PWR0119" H 1450 4800 50  0001 C CNN
F 1 "+3V3" H 1465 5123 50  0000 C CNN
F 2 "" H 1450 4950 50  0001 C CNN
F 3 "" H 1450 4950 50  0001 C CNN
	1    1450 4950
	1    0    0    -1  
$EndComp
Wire Wire Line
	1450 4950 1100 4950
$Comp
L power:GND #PWR0120
U 1 1 5C7595C4
P 1450 5350
F 0 "#PWR0120" H 1450 5100 50  0001 C CNN
F 1 "GND" H 1455 5177 50  0000 C CNN
F 2 "" H 1450 5350 50  0001 C CNN
F 3 "" H 1450 5350 50  0001 C CNN
	1    1450 5350
	1    0    0    -1  
$EndComp
Wire Wire Line
	1450 5350 1100 5350
Wire Wire Line
	1100 5150 1450 5150
Wire Wire Line
	1450 5250 1100 5250
Text Label 1450 5050 0    50   ~ 0
SCK
Text Label 1450 5150 0    50   ~ 0
MOSI
Text Label 1450 5250 0    50   ~ 0
MISO
Wire Wire Line
	1450 5050 1100 5050
$Comp
L Connector:Conn_01x04_Male J4
U 1 1 5C761403
P 900 6100
F 0 "J4" H 1006 6378 50  0000 C CNN
F 1 "PROG" H 1006 6287 50  0000 C CNN
F 2 "Connector_PinSocket_2.54mm:PinSocket_1x04_P2.54mm_Vertical" H 900 6100 50  0001 C CNN
F 3 "~" H 900 6100 50  0001 C CNN
	1    900  6100
	1    0    0    -1  
$EndComp
$Comp
L power:+3V3 #PWR0121
U 1 1 5C761409
P 1450 6000
F 0 "#PWR0121" H 1450 5850 50  0001 C CNN
F 1 "+3V3" H 1465 6173 50  0000 C CNN
F 2 "" H 1450 6000 50  0001 C CNN
F 3 "" H 1450 6000 50  0001 C CNN
	1    1450 6000
	1    0    0    -1  
$EndComp
$Comp
L power:GND #PWR0122
U 1 1 5C761410
P 1450 6300
F 0 "#PWR0122" H 1450 6050 50  0001 C CNN
F 1 "GND" H 1455 6127 50  0000 C CNN
F 2 "" H 1450 6300 50  0001 C CNN
F 3 "" H 1450 6300 50  0001 C CNN
	1    1450 6300
	1    0    0    -1  
$EndComp
Wire Wire Line
	1100 6100 1450 6100
Wire Wire Line
	1450 6300 1100 6300
Text Label 1450 6100 0    50   ~ 0
SWIM
Wire Wire Line
	1450 6000 1100 6000
Text Label 8100 2600 2    50   ~ 0
RESET
Text Label 1450 6200 0    50   ~ 0
RESET
Wire Wire Line
	1450 6200 1100 6200
$Comp
L Connector:Screw_Terminal_01x04 J5
U 1 1 5C7704B2
P 700 7050
F 0 "J5" H 620 6625 50  0000 C CNN
F 1 "LED1" H 620 6716 50  0000 C CNN
F 2 "copperforge:OSTYK51104030" H 700 7050 50  0001 C CNN
F 3 "~" H 700 7050 50  0001 C CNN
	1    700  7050
	-1   0    0    1   
$EndComp
$Comp
L power:+12V #PWR0123
U 1 1 5C770D1B
P 1050 6850
F 0 "#PWR0123" H 1050 6700 50  0001 C CNN
F 1 "+12V" H 1065 7023 50  0000 C CNN
F 2 "" H 1050 6850 50  0001 C CNN
F 3 "" H 1050 6850 50  0001 C CNN
	1    1050 6850
	1    0    0    -1  
$EndComp
Wire Wire Line
	1050 6850 900  6850
Text Label 1050 6950 0    50   ~ 0
RED_PWR
Text Label 1050 7050 0    50   ~ 0
GREEN_PWR
Text Label 1050 7150 0    50   ~ 0
BLUE_PWR
Wire Wire Line
	1050 6950 900  6950
Wire Wire Line
	900  7050 1050 7050
Wire Wire Line
	1050 7150 900  7150
Text Notes 6200 2950 0    50   ~ 0
G\n
Text Notes 6350 3100 0    50   ~ 0
D
Text Notes 6000 3100 0    50   ~ 0
S
$Comp
L power:GND #PWR0124
U 1 1 5C7866DB
P 5800 3100
F 0 "#PWR0124" H 5800 2850 50  0001 C CNN
F 1 "GND" H 5805 2927 50  0000 C CNN
F 2 "" H 5800 3100 50  0001 C CNN
F 3 "" H 5800 3100 50  0001 C CNN
	1    5800 3100
	1    0    0    -1  
$EndComp
Wire Wire Line
	5800 3100 5900 3100
$Comp
L Device:R_Small_US R2
U 1 1 5C78B112
P 5900 2850
F 0 "R2" H 5968 2896 50  0000 L CNN
F 1 "10k" H 5968 2805 50  0000 L CNN
F 2 "Resistor_SMD:R_0805_2012Metric_Pad1.15x1.40mm_HandSolder" H 5900 2850 50  0001 C CNN
F 3 "~" H 5900 2850 50  0001 C CNN
	1    5900 2850
	1    0    0    -1  
$EndComp
Wire Wire Line
	5900 2950 5900 3100
Connection ~ 5900 3100
Wire Wire Line
	5900 3100 6000 3100
Wire Wire Line
	5900 2750 5900 2700
Wire Wire Line
	5900 2700 6200 2700
Wire Wire Line
	6200 2700 6200 2800
Text Label 6550 3100 0    50   ~ 0
RED_PWR
Wire Wire Line
	6550 3100 6400 3100
$Comp
L Device:R_Small_US R3
U 1 1 5C79C995
P 6200 2550
F 0 "R3" H 6268 2596 50  0000 L CNN
F 1 "100" H 6268 2505 50  0000 L CNN
F 2 "Resistor_SMD:R_0805_2012Metric_Pad1.15x1.40mm_HandSolder" H 6200 2550 50  0001 C CNN
F 3 "~" H 6200 2550 50  0001 C CNN
	1    6200 2550
	1    0    0    -1  
$EndComp
Wire Wire Line
	6200 2650 6200 2700
Connection ~ 6200 2700
Wire Wire Line
	6200 2400 6200 2450
Text Label 10200 3050 2    50   ~ 0
SCL
Text Label 10700 3050 2    50   ~ 0
SDA
$Comp
L Device:R_Small_US R10
U 1 1 5C7BA2AB
P 10200 2800
F 0 "R10" H 10268 2846 50  0000 L CNN
F 1 "4.7k" H 10268 2755 50  0000 L CNN
F 2 "Resistor_SMD:R_0805_2012Metric_Pad1.15x1.40mm_HandSolder" H 10200 2800 50  0001 C CNN
F 3 "~" H 10200 2800 50  0001 C CNN
	1    10200 2800
	1    0    0    -1  
$EndComp
$Comp
L Device:R_Small_US R11
U 1 1 5C7BA370
P 10700 2800
F 0 "R11" H 10768 2846 50  0000 L CNN
F 1 "4.7k" H 10768 2755 50  0000 L CNN
F 2 "Resistor_SMD:R_0805_2012Metric_Pad1.15x1.40mm_HandSolder" H 10700 2800 50  0001 C CNN
F 3 "~" H 10700 2800 50  0001 C CNN
	1    10700 2800
	1    0    0    -1  
$EndComp
$Comp
L power:+3V3 #PWR0125
U 1 1 5C7BA433
P 10700 2600
F 0 "#PWR0125" H 10700 2450 50  0001 C CNN
F 1 "+3V3" H 10715 2773 50  0000 C CNN
F 2 "" H 10700 2600 50  0001 C CNN
F 3 "" H 10700 2600 50  0001 C CNN
	1    10700 2600
	1    0    0    -1  
$EndComp
$Comp
L power:+3V3 #PWR0126
U 1 1 5C7BA4A9
P 10200 2600
F 0 "#PWR0126" H 10200 2450 50  0001 C CNN
F 1 "+3V3" H 10215 2773 50  0000 C CNN
F 2 "" H 10200 2600 50  0001 C CNN
F 3 "" H 10200 2600 50  0001 C CNN
	1    10200 2600
	1    0    0    -1  
$EndComp
Wire Wire Line
	10200 2600 10200 2700
Wire Wire Line
	10200 3050 10200 2900
Wire Wire Line
	10700 2900 10700 3050
Wire Wire Line
	10700 2600 10700 2700
$Comp
L Driver_FET:MCP1416 U2
U 1 1 5C7D57ED
P 4750 2800
F 0 "U2" H 5100 2650 50  0000 L CNN
F 1 "MCP1416" H 4900 2550 50  0000 L CNN
F 2 "Package_TO_SOT_SMD:SOT-23-5" H 4750 2400 50  0001 C CIN
F 3 "http://ww1.microchip.com/downloads/en/DeviceDoc/20002092F.pdf" H 4550 3050 50  0001 C CNN
	1    4750 2800
	1    0    0    -1  
$EndComp
Text Label 4300 2800 2    50   ~ 0
RED_SWITCH
Wire Wire Line
	4300 2800 4350 2800
$Comp
L power:+12V #PWR0127
U 1 1 5C7DDE64
P 4750 2400
F 0 "#PWR0127" H 4750 2250 50  0001 C CNN
F 1 "+12V" H 4765 2573 50  0000 C CNN
F 2 "" H 4750 2400 50  0001 C CNN
F 3 "" H 4750 2400 50  0001 C CNN
	1    4750 2400
	1    0    0    -1  
$EndComp
$Comp
L power:GND #PWR0128
U 1 1 5C7E0626
P 4750 3250
F 0 "#PWR0128" H 4750 3000 50  0001 C CNN
F 1 "GND" H 4755 3077 50  0000 C CNN
F 2 "" H 4750 3250 50  0001 C CNN
F 3 "" H 4750 3250 50  0001 C CNN
	1    4750 3250
	1    0    0    -1  
$EndComp
$Comp
L Device:C_Small C7
U 1 1 5C7E822C
P 3050 2850
F 0 "C7" H 3142 2896 50  0000 L CNN
F 1 "1uF" H 3142 2805 50  0000 L CNN
F 2 "Capacitor_SMD:C_0805_2012Metric_Pad1.15x1.40mm_HandSolder" H 3050 2850 50  0001 C CNN
F 3 "~" H 3050 2850 50  0001 C CNN
	1    3050 2850
	1    0    0    -1  
$EndComp
$Comp
L Device:C_Small C8
U 1 1 5C7E82B2
P 3350 2850
F 0 "C8" H 3442 2896 50  0000 L CNN
F 1 "0.1uF" H 3442 2805 50  0000 L CNN
F 2 "Capacitor_SMD:C_0805_2012Metric_Pad1.15x1.40mm_HandSolder" H 3350 2850 50  0001 C CNN
F 3 "~" H 3350 2850 50  0001 C CNN
	1    3350 2850
	1    0    0    -1  
$EndComp
Wire Wire Line
	3350 2750 3350 2700
Wire Wire Line
	3350 2700 3050 2700
Wire Wire Line
	3050 2750 3050 2700
Connection ~ 3050 2700
Wire Wire Line
	3350 2950 3350 3000
Wire Wire Line
	3350 3000 3050 3000
Wire Wire Line
	3050 2950 3050 3000
Connection ~ 3050 3000
Wire Wire Line
	4750 3100 4750 3200
$Comp
L Device:C_Small C6
U 1 1 5C7FFB2C
P 2700 2850
F 0 "C6" H 2792 2896 50  0000 L CNN
F 1 "10uF" H 2792 2805 50  0000 L CNN
F 2 "Capacitor_SMD:C_0805_2012Metric_Pad1.15x1.40mm_HandSolder" H 2700 2850 50  0001 C CNN
F 3 "~" H 2700 2850 50  0001 C CNN
	1    2700 2850
	1    0    0    -1  
$EndComp
Wire Wire Line
	2700 2750 2700 2700
Wire Wire Line
	2700 2700 3050 2700
Wire Wire Line
	3050 3000 2700 3000
Wire Wire Line
	2700 3000 2700 2950
Connection ~ 4750 3200
Wire Wire Line
	4750 3200 4750 3250
$Comp
L Driver_FET:MCP1416 U4
U 1 1 5C811101
P 4750 5450
F 0 "U4" H 5100 5300 50  0000 L CNN
F 1 "MCP1416" H 4900 5200 50  0000 L CNN
F 2 "Package_TO_SOT_SMD:SOT-23-5" H 4750 5050 50  0001 C CIN
F 3 "http://ww1.microchip.com/downloads/en/DeviceDoc/20002092F.pdf" H 4550 5700 50  0001 C CNN
	1    4750 5450
	1    0    0    -1  
$EndComp
Text Label 4300 5450 2    50   ~ 0
BLUE_SWITCH
Wire Wire Line
	4300 5450 4350 5450
$Comp
L power:+12V #PWR0129
U 1 1 5C81110B
P 4750 5050
F 0 "#PWR0129" H 4750 4900 50  0001 C CNN
F 1 "+12V" H 4765 5223 50  0000 C CNN
F 2 "" H 4750 5050 50  0001 C CNN
F 3 "" H 4750 5050 50  0001 C CNN
	1    4750 5050
	1    0    0    -1  
$EndComp
$Comp
L power:GND #PWR0130
U 1 1 5C811111
P 4750 5900
F 0 "#PWR0130" H 4750 5650 50  0001 C CNN
F 1 "GND" H 4755 5727 50  0000 C CNN
F 2 "" H 4750 5900 50  0001 C CNN
F 3 "" H 4750 5900 50  0001 C CNN
	1    4750 5900
	1    0    0    -1  
$EndComp
$Comp
L Device:C_Small C19
U 1 1 5C811117
P 3050 5550
F 0 "C19" H 3142 5596 50  0000 L CNN
F 1 "1uF" H 3142 5505 50  0000 L CNN
F 2 "Capacitor_SMD:C_0805_2012Metric_Pad1.15x1.40mm_HandSolder" H 3050 5550 50  0001 C CNN
F 3 "~" H 3050 5550 50  0001 C CNN
	1    3050 5550
	1    0    0    -1  
$EndComp
$Comp
L Device:C_Small C20
U 1 1 5C81111D
P 3350 5550
F 0 "C20" H 3442 5596 50  0000 L CNN
F 1 "0.1uF" H 3442 5505 50  0000 L CNN
F 2 "Capacitor_SMD:C_0805_2012Metric_Pad1.15x1.40mm_HandSolder" H 3350 5550 50  0001 C CNN
F 3 "~" H 3350 5550 50  0001 C CNN
	1    3350 5550
	1    0    0    -1  
$EndComp
Wire Wire Line
	3050 5850 3050 5700
Wire Wire Line
	3050 5300 3050 5400
Wire Wire Line
	3350 5450 3350 5400
Wire Wire Line
	3350 5400 3050 5400
Wire Wire Line
	3050 5450 3050 5400
Connection ~ 3050 5400
Wire Wire Line
	3350 5650 3350 5700
Wire Wire Line
	3350 5700 3050 5700
Wire Wire Line
	3050 5650 3050 5700
Connection ~ 3050 5700
Wire Wire Line
	4750 5750 4750 5850
$Comp
L Device:C_Small C17
U 1 1 5C81112E
P 2700 5550
F 0 "C17" H 2792 5596 50  0000 L CNN
F 1 "10uF" H 2792 5505 50  0000 L CNN
F 2 "Capacitor_SMD:C_0805_2012Metric_Pad1.15x1.40mm_HandSolder" H 2700 5550 50  0001 C CNN
F 3 "~" H 2700 5550 50  0001 C CNN
	1    2700 5550
	1    0    0    -1  
$EndComp
Wire Wire Line
	2700 5450 2700 5400
Wire Wire Line
	2700 5400 3050 5400
Wire Wire Line
	3050 5700 2700 5700
Wire Wire Line
	2700 5700 2700 5650
Connection ~ 4750 5850
Wire Wire Line
	4750 5850 4750 5900
$Comp
L Driver_FET:MCP1416 U3
U 1 1 5C8155C3
P 4750 4100
F 0 "U3" H 5100 3950 50  0000 L CNN
F 1 "MCP1416" H 4900 3850 50  0000 L CNN
F 2 "Package_TO_SOT_SMD:SOT-23-5" H 4750 3700 50  0001 C CIN
F 3 "http://ww1.microchip.com/downloads/en/DeviceDoc/20002092F.pdf" H 4550 4350 50  0001 C CNN
	1    4750 4100
	1    0    0    -1  
$EndComp
Text Label 4300 4100 2    50   ~ 0
GREEN_SWITCH
Wire Wire Line
	4300 4100 4350 4100
$Comp
L power:+12V #PWR0131
U 1 1 5C8155CD
P 4750 3700
F 0 "#PWR0131" H 4750 3550 50  0001 C CNN
F 1 "+12V" H 4765 3873 50  0000 C CNN
F 2 "" H 4750 3700 50  0001 C CNN
F 3 "" H 4750 3700 50  0001 C CNN
	1    4750 3700
	1    0    0    -1  
$EndComp
$Comp
L power:GND #PWR0132
U 1 1 5C8155D3
P 4750 4550
F 0 "#PWR0132" H 4750 4300 50  0001 C CNN
F 1 "GND" H 4755 4377 50  0000 C CNN
F 2 "" H 4750 4550 50  0001 C CNN
F 3 "" H 4750 4550 50  0001 C CNN
	1    4750 4550
	1    0    0    -1  
$EndComp
$Comp
L Device:C_Small C10
U 1 1 5C8155D9
P 3050 4100
F 0 "C10" H 3142 4146 50  0000 L CNN
F 1 "1uF" H 3142 4055 50  0000 L CNN
F 2 "Capacitor_SMD:C_0805_2012Metric_Pad1.15x1.40mm_HandSolder" H 3050 4100 50  0001 C CNN
F 3 "~" H 3050 4100 50  0001 C CNN
	1    3050 4100
	1    0    0    -1  
$EndComp
$Comp
L Device:C_Small C12
U 1 1 5C8155DF
P 3350 4100
F 0 "C12" H 3442 4146 50  0000 L CNN
F 1 "0.1uF" H 3442 4055 50  0000 L CNN
F 2 "Capacitor_SMD:C_0805_2012Metric_Pad1.15x1.40mm_HandSolder" H 3350 4100 50  0001 C CNN
F 3 "~" H 3350 4100 50  0001 C CNN
	1    3350 4100
	1    0    0    -1  
$EndComp
Wire Wire Line
	3050 4400 3050 4250
Wire Wire Line
	3050 3850 3050 3950
Wire Wire Line
	3350 4000 3350 3950
Wire Wire Line
	3350 3950 3050 3950
Wire Wire Line
	3050 4000 3050 3950
Connection ~ 3050 3950
Wire Wire Line
	3350 4200 3350 4250
Wire Wire Line
	3350 4250 3050 4250
Wire Wire Line
	3050 4200 3050 4250
Connection ~ 3050 4250
Wire Wire Line
	4750 4400 4750 4500
$Comp
L Device:C_Small C9
U 1 1 5C8155F0
P 2700 4100
F 0 "C9" H 2792 4146 50  0000 L CNN
F 1 "10uF" H 2792 4055 50  0000 L CNN
F 2 "Capacitor_SMD:C_0805_2012Metric_Pad1.15x1.40mm_HandSolder" H 2700 4100 50  0001 C CNN
F 3 "~" H 2700 4100 50  0001 C CNN
	1    2700 4100
	1    0    0    -1  
$EndComp
Wire Wire Line
	2700 4000 2700 3950
Wire Wire Line
	2700 3950 3050 3950
Wire Wire Line
	3050 4250 2700 4250
Wire Wire Line
	2700 4250 2700 4200
Connection ~ 4750 4500
Wire Wire Line
	4750 4500 4750 4550
Wire Wire Line
	9900 2000 10050 2000
Wire Wire Line
	10050 1900 9900 1900
$Comp
L Device:R_Small_US R1
U 1 1 5C85CF84
P 4350 3000
F 0 "R1" H 4418 3046 50  0000 L CNN
F 1 "10k" H 4418 2955 50  0000 L CNN
F 2 "Resistor_SMD:R_0805_2012Metric_Pad1.15x1.40mm_HandSolder" H 4350 3000 50  0001 C CNN
F 3 "~" H 4350 3000 50  0001 C CNN
	1    4350 3000
	1    0    0    -1  
$EndComp
Wire Wire Line
	4350 2900 4350 2800
Connection ~ 4350 2800
Wire Wire Line
	4350 2800 4450 2800
Wire Wire Line
	4350 3100 4350 3200
Wire Wire Line
	4350 3200 4750 3200
$Comp
L Device:R_Small_US R6
U 1 1 5C869735
P 4350 4300
F 0 "R6" H 4418 4346 50  0000 L CNN
F 1 "10k" H 4418 4255 50  0000 L CNN
F 2 "Resistor_SMD:R_0805_2012Metric_Pad1.15x1.40mm_HandSolder" H 4350 4300 50  0001 C CNN
F 3 "~" H 4350 4300 50  0001 C CNN
	1    4350 4300
	1    0    0    -1  
$EndComp
Wire Wire Line
	4350 4200 4350 4100
Wire Wire Line
	4350 4400 4350 4500
Wire Wire Line
	4350 4500 4750 4500
Connection ~ 4350 4100
Wire Wire Line
	4350 4100 4450 4100
$Comp
L Device:R_Small_US R9
U 1 1 5C870090
P 4350 5650
F 0 "R9" H 4418 5696 50  0000 L CNN
F 1 "10k" H 4418 5605 50  0000 L CNN
F 2 "Resistor_SMD:R_0805_2012Metric_Pad1.15x1.40mm_HandSolder" H 4350 5650 50  0001 C CNN
F 3 "~" H 4350 5650 50  0001 C CNN
	1    4350 5650
	1    0    0    -1  
$EndComp
Wire Wire Line
	4350 5550 4350 5450
Wire Wire Line
	4350 5750 4350 5850
Wire Wire Line
	4350 5850 4750 5850
Connection ~ 4350 5450
Wire Wire Line
	4350 5450 4450 5450
$Comp
L Transistor_FET:IRLB8721PBF Q2
U 1 1 5C8790CF
P 6200 4300
F 0 "Q2" V 6450 4300 50  0000 C CNN
F 1 "IRLB8743" V 6541 4300 50  0000 C CNN
F 2 "Package_TO_SOT_THT:TO-220-3_Vertical" H 6450 4225 50  0001 L CIN
F 3 "http://www.infineon.com/dgdl/irlb8721pbf.pdf?fileId=5546d462533600a40153566056732591" H 6200 4300 50  0001 L CNN
	1    6200 4300
	0    1    1    0   
$EndComp
Text Notes 6200 4250 0    50   ~ 0
G\n
Text Notes 6350 4400 0    50   ~ 0
D
Text Notes 6000 4400 0    50   ~ 0
S
$Comp
L power:GND #PWR0133
U 1 1 5C8790D8
P 5800 4400
F 0 "#PWR0133" H 5800 4150 50  0001 C CNN
F 1 "GND" H 5805 4227 50  0000 C CNN
F 2 "" H 5800 4400 50  0001 C CNN
F 3 "" H 5800 4400 50  0001 C CNN
	1    5800 4400
	1    0    0    -1  
$EndComp
Wire Wire Line
	5800 4400 5900 4400
$Comp
L Device:R_Small_US R4
U 1 1 5C8790E0
P 5900 4150
F 0 "R4" H 5968 4196 50  0000 L CNN
F 1 "10k" H 5968 4105 50  0000 L CNN
F 2 "Resistor_SMD:R_0805_2012Metric_Pad1.15x1.40mm_HandSolder" H 5900 4150 50  0001 C CNN
F 3 "~" H 5900 4150 50  0001 C CNN
	1    5900 4150
	1    0    0    -1  
$EndComp
Wire Wire Line
	5900 4250 5900 4400
Connection ~ 5900 4400
Wire Wire Line
	5900 4400 6000 4400
Wire Wire Line
	5900 4050 5900 4000
Wire Wire Line
	5900 4000 6200 4000
Wire Wire Line
	6200 4000 6200 4100
Text Label 6550 4400 0    50   ~ 0
GREEN_PWR
Wire Wire Line
	6550 4400 6400 4400
$Comp
L Device:R_Small_US R5
U 1 1 5C8790EE
P 6200 3850
F 0 "R5" H 6268 3896 50  0000 L CNN
F 1 "100" H 6268 3805 50  0000 L CNN
F 2 "Resistor_SMD:R_0805_2012Metric_Pad1.15x1.40mm_HandSolder" H 6200 3850 50  0001 C CNN
F 3 "~" H 6200 3850 50  0001 C CNN
	1    6200 3850
	1    0    0    -1  
$EndComp
Wire Wire Line
	6200 3950 6200 4000
Connection ~ 6200 4000
Wire Wire Line
	3050 2600 3050 2700
Wire Wire Line
	3050 3150 3050 3000
$Comp
L Transistor_FET:IRLB8721PBF Q3
U 1 1 5C8BC130
P 6200 5600
F 0 "Q3" V 6450 5600 50  0000 C CNN
F 1 "IRLB8743" V 6541 5600 50  0000 C CNN
F 2 "Package_TO_SOT_THT:TO-220-3_Vertical" H 6450 5525 50  0001 L CIN
F 3 "http://www.infineon.com/dgdl/irlb8721pbf.pdf?fileId=5546d462533600a40153566056732591" H 6200 5600 50  0001 L CNN
	1    6200 5600
	0    1    1    0   
$EndComp
Text Notes 6200 5550 0    50   ~ 0
G\n
Text Notes 6350 5700 0    50   ~ 0
D
Text Notes 6000 5700 0    50   ~ 0
S
$Comp
L power:GND #PWR0134
U 1 1 5C8BC139
P 5800 5700
F 0 "#PWR0134" H 5800 5450 50  0001 C CNN
F 1 "GND" H 5805 5527 50  0000 C CNN
F 2 "" H 5800 5700 50  0001 C CNN
F 3 "" H 5800 5700 50  0001 C CNN
	1    5800 5700
	1    0    0    -1  
$EndComp
Wire Wire Line
	5800 5700 5900 5700
$Comp
L Device:R_Small_US R7
U 1 1 5C8BC141
P 5900 5450
F 0 "R7" H 5968 5496 50  0000 L CNN
F 1 "10k" H 5968 5405 50  0000 L CNN
F 2 "Resistor_SMD:R_0805_2012Metric_Pad1.15x1.40mm_HandSolder" H 5900 5450 50  0001 C CNN
F 3 "~" H 5900 5450 50  0001 C CNN
	1    5900 5450
	1    0    0    -1  
$EndComp
Wire Wire Line
	5900 5550 5900 5700
Connection ~ 5900 5700
Wire Wire Line
	5900 5700 6000 5700
Wire Wire Line
	5900 5350 5900 5300
Wire Wire Line
	5900 5300 6200 5300
Wire Wire Line
	6200 5300 6200 5400
Text Label 6550 5700 0    50   ~ 0
BLUE_PWR
Wire Wire Line
	6550 5700 6400 5700
$Comp
L Device:R_Small_US R8
U 1 1 5C8BC14F
P 6200 5150
F 0 "R8" H 6268 5196 50  0000 L CNN
F 1 "100" H 6268 5105 50  0000 L CNN
F 2 "Resistor_SMD:R_0805_2012Metric_Pad1.15x1.40mm_HandSolder" H 6200 5150 50  0001 C CNN
F 3 "~" H 6200 5150 50  0001 C CNN
	1    6200 5150
	1    0    0    -1  
$EndComp
Wire Wire Line
	6200 5250 6200 5300
Connection ~ 6200 5300
Wire Wire Line
	4750 3700 4750 3800
Wire Wire Line
	4750 2400 4750 2500
Wire Wire Line
	4750 5050 4750 5150
$Comp
L power:+12V #PWR0135
U 1 1 5C93BEEF
P 3050 5300
F 0 "#PWR0135" H 3050 5150 50  0001 C CNN
F 1 "+12V" H 3065 5473 50  0000 C CNN
F 2 "" H 3050 5300 50  0001 C CNN
F 3 "" H 3050 5300 50  0001 C CNN
	1    3050 5300
	1    0    0    -1  
$EndComp
$Comp
L power:+12V #PWR0136
U 1 1 5C93BFA4
P 3050 3850
F 0 "#PWR0136" H 3050 3700 50  0001 C CNN
F 1 "+12V" H 3065 4023 50  0000 C CNN
F 2 "" H 3050 3850 50  0001 C CNN
F 3 "" H 3050 3850 50  0001 C CNN
	1    3050 3850
	1    0    0    -1  
$EndComp
$Comp
L power:+12V #PWR0137
U 1 1 5C93C059
P 3050 2600
F 0 "#PWR0137" H 3050 2450 50  0001 C CNN
F 1 "+12V" H 3065 2773 50  0000 C CNN
F 2 "" H 3050 2600 50  0001 C CNN
F 3 "" H 3050 2600 50  0001 C CNN
	1    3050 2600
	1    0    0    -1  
$EndComp
$Comp
L power:GND #PWR0138
U 1 1 5C93C14D
P 3050 4400
F 0 "#PWR0138" H 3050 4150 50  0001 C CNN
F 1 "GND" H 3055 4227 50  0000 C CNN
F 2 "" H 3050 4400 50  0001 C CNN
F 3 "" H 3050 4400 50  0001 C CNN
	1    3050 4400
	1    0    0    -1  
$EndComp
$Comp
L power:GND #PWR0139
U 1 1 5C93C202
P 3050 3150
F 0 "#PWR0139" H 3050 2900 50  0001 C CNN
F 1 "GND" H 3055 2977 50  0000 C CNN
F 2 "" H 3050 3150 50  0001 C CNN
F 3 "" H 3050 3150 50  0001 C CNN
	1    3050 3150
	1    0    0    -1  
$EndComp
$Comp
L power:GND #PWR0140
U 1 1 5C93C2B7
P 3050 5850
F 0 "#PWR0140" H 3050 5600 50  0001 C CNN
F 1 "GND" H 3055 5677 50  0000 C CNN
F 2 "" H 3050 5850 50  0001 C CNN
F 3 "" H 3050 5850 50  0001 C CNN
	1    3050 5850
	1    0    0    -1  
$EndComp
Wire Wire Line
	5600 5450 5600 4900
Wire Wire Line
	5600 4900 6200 4900
Wire Wire Line
	5150 5450 5600 5450
Wire Wire Line
	6200 4900 6200 5050
Wire Wire Line
	5600 4100 5600 3650
Wire Wire Line
	5600 3650 6200 3650
Wire Wire Line
	5150 4100 5600 4100
Wire Wire Line
	6200 3650 6200 3750
Wire Wire Line
	5550 2800 5550 2400
Wire Wire Line
	5550 2400 6200 2400
Wire Wire Line
	5150 2800 5550 2800
Connection ~ 2000 2250
Wire Wire Line
	2000 2400 2000 2250
Wire Wire Line
	2100 2400 2000 2400
$Comp
L Connector:Conn_Coaxial_Power J7
U 1 1 5CA2068D
P 700 1250
F 0 "J7" H 788 1246 50  0000 L CNN
F 1 "PWR1" H 788 1155 50  0000 L CNN
F 2 "copperforge:OSTYK51102030" H 700 1200 50  0001 C CNN
F 3 "~" H 700 1200 50  0001 C CNN
	1    700  1250
	1    0    0    -1  
$EndComp
Wire Wire Line
	1050 1500 700  1500
Wire Wire Line
	700  1500 700  1450
Wire Wire Line
	700  1150 700  1100
Wire Wire Line
	700  1100 1050 1100
$Comp
L Connector:Screw_Terminal_01x04 J8
U 1 1 5CA3A5CE
P 1700 7050
F 0 "J8" H 1620 6625 50  0000 C CNN
F 1 "LED2" H 1620 6716 50  0000 C CNN
F 2 "copperforge:OSTYK51104030" H 1700 7050 50  0001 C CNN
F 3 "~" H 1700 7050 50  0001 C CNN
	1    1700 7050
	-1   0    0    1   
$EndComp
$Comp
L power:+12V #PWR0141
U 1 1 5CA3A5D4
P 2050 6850
F 0 "#PWR0141" H 2050 6700 50  0001 C CNN
F 1 "+12V" H 2065 7023 50  0000 C CNN
F 2 "" H 2050 6850 50  0001 C CNN
F 3 "" H 2050 6850 50  0001 C CNN
	1    2050 6850
	1    0    0    -1  
$EndComp
Wire Wire Line
	2050 6850 1900 6850
Text Label 2050 6950 0    50   ~ 0
RED_PWR
Text Label 2050 7050 0    50   ~ 0
GREEN_PWR
Text Label 2050 7150 0    50   ~ 0
BLUE_PWR
Wire Wire Line
	2050 6950 1900 6950
Wire Wire Line
	1900 7050 2050 7050
Wire Wire Line
	2050 7150 1900 7150
Text Notes 1150 1050 0    50   ~ 0
 OSTYK51102030 
Text Notes 650  7300 0    50   ~ 0
 OSTYK51104030 
$Comp
L Connector:Screw_Terminal_01x04 J9
U 1 1 5CA879CC
P 2650 7050
F 0 "J9" H 2570 6625 50  0000 C CNN
F 1 "LED3" H 2570 6716 50  0000 C CNN
F 2 "copperforge:OSTYK51104030" H 2650 7050 50  0001 C CNN
F 3 "~" H 2650 7050 50  0001 C CNN
	1    2650 7050
	-1   0    0    1   
$EndComp
$Comp
L power:+12V #PWR0142
U 1 1 5CA879D2
P 3000 6850
F 0 "#PWR0142" H 3000 6700 50  0001 C CNN
F 1 "+12V" H 3015 7023 50  0000 C CNN
F 2 "" H 3000 6850 50  0001 C CNN
F 3 "" H 3000 6850 50  0001 C CNN
	1    3000 6850
	1    0    0    -1  
$EndComp
Wire Wire Line
	3000 6850 2850 6850
Text Label 3000 6950 0    50   ~ 0
RED_PWR
Text Label 3000 7050 0    50   ~ 0
GREEN_PWR
Text Label 3000 7150 0    50   ~ 0
BLUE_PWR
Wire Wire Line
	3000 6950 2850 6950
Wire Wire Line
	2850 7050 3000 7050
Wire Wire Line
	3000 7150 2850 7150
$Comp
L Connector:Screw_Terminal_01x04 J10
U 1 1 5CA91131
P 3700 7050
F 0 "J10" H 3620 6625 50  0000 C CNN
F 1 "LED4" H 3620 6716 50  0000 C CNN
F 2 "copperforge:OSTYK51104030" H 3700 7050 50  0001 C CNN
F 3 "~" H 3700 7050 50  0001 C CNN
	1    3700 7050
	-1   0    0    1   
$EndComp
$Comp
L power:+12V #PWR0143
U 1 1 5CA91137
P 4050 6850
F 0 "#PWR0143" H 4050 6700 50  0001 C CNN
F 1 "+12V" H 4065 7023 50  0000 C CNN
F 2 "" H 4050 6850 50  0001 C CNN
F 3 "" H 4050 6850 50  0001 C CNN
	1    4050 6850
	1    0    0    -1  
$EndComp
Wire Wire Line
	4050 6850 3900 6850
Text Label 4050 6950 0    50   ~ 0
RED_PWR
Text Label 4050 7050 0    50   ~ 0
GREEN_PWR
Text Label 4050 7150 0    50   ~ 0
BLUE_PWR
Wire Wire Line
	4050 6950 3900 6950
Wire Wire Line
	3900 7050 4050 7050
Wire Wire Line
	4050 7150 3900 7150
$Comp
L Device:LED D1
U 1 1 5CAA9E67
P 9450 3850
F 0 "D1" H 9442 3595 50  0000 C CNN
F 1 " SSL-LX5093VC " H 9442 3686 50  0000 C CNN
F 2 "LED_THT:LED_D5.0mm" H 9450 3850 50  0001 C CNN
F 3 "~" H 9450 3850 50  0001 C CNN
	1    9450 3850
	-1   0    0    1   
$EndComp
Wire Wire Line
	9850 3850 9600 3850
$Comp
L power:GND #PWR0144
U 1 1 5CAC9971
P 9850 3850
F 0 "#PWR0144" H 9850 3600 50  0001 C CNN
F 1 "GND" H 9855 3677 50  0000 C CNN
F 2 "" H 9850 3850 50  0001 C CNN
F 3 "" H 9850 3850 50  0001 C CNN
	1    9850 3850
	1    0    0    -1  
$EndComp
$Comp
L power:+12V #PWR0145
U 1 1 5CAC9A74
P 8700 3850
F 0 "#PWR0145" H 8700 3700 50  0001 C CNN
F 1 "+12V" H 8715 4023 50  0000 C CNN
F 2 "" H 8700 3850 50  0001 C CNN
F 3 "" H 8700 3850 50  0001 C CNN
	1    8700 3850
	1    0    0    -1  
$EndComp
$Comp
L Device:R_Small_US R13
U 1 1 5CAC9E65
P 9050 3850
F 0 "R13" V 8845 3850 50  0000 C CNN
F 1 "500" V 8936 3850 50  0000 C CNN
F 2 "Resistor_THT:R_Axial_DIN0414_L11.9mm_D4.5mm_P20.32mm_Horizontal" H 9050 3850 50  0001 C CNN
F 3 "~" H 9050 3850 50  0001 C CNN
	1    9050 3850
	0    1    1    0   
$EndComp
Wire Wire Line
	9150 3850 9300 3850
Wire Wire Line
	8700 3850 8950 3850
Text Notes 8700 4000 0    50   ~ 0
Note: 1/2 watt dissipate
Text Label 9850 4450 0    50   ~ 0
LED_STATUS
$Comp
L Device:LED D2
U 1 1 5CAF47FA
P 9450 4450
F 0 "D2" H 9442 4195 50  0000 C CNN
F 1 " LTST-C193TBKT-5A " H 9442 4286 50  0000 C CNN
F 2 "LED_SMD:LED_0603_1608Metric_Pad1.05x0.95mm_HandSolder" H 9450 4450 50  0001 C CNN
F 3 "~" H 9450 4450 50  0001 C CNN
	1    9450 4450
	-1   0    0    1   
$EndComp
Wire Wire Line
	9850 4450 9600 4450
$Comp
L power:+3V3 #PWR0146
U 1 1 5CAFF5F2
P 8750 4450
F 0 "#PWR0146" H 8750 4300 50  0001 C CNN
F 1 "+3V3" H 8765 4623 50  0000 C CNN
F 2 "" H 8750 4450 50  0001 C CNN
F 3 "" H 8750 4450 50  0001 C CNN
	1    8750 4450
	1    0    0    -1  
$EndComp
$Comp
L Device:R_Small_US R12
U 1 1 5CAFFC25
P 9000 4450
F 0 "R12" V 8795 4450 50  0000 C CNN
F 1 "100" V 8886 4450 50  0000 C CNN
F 2 "Resistor_SMD:R_0805_2012Metric_Pad1.15x1.40mm_HandSolder" H 9000 4450 50  0001 C CNN
F 3 "~" H 9000 4450 50  0001 C CNN
	1    9000 4450
	0    1    1    0   
$EndComp
Wire Wire Line
	9100 4450 9300 4450
Wire Wire Line
	8900 4450 8750 4450
Text Notes 8550 3550 0    50   ~ 0
 PAC100005000FA1000 \n
$Comp
L Device:Crystal_GND24 Y1
U 1 1 5C74F436
P 7850 1450
F 0 "Y1" H 7750 1100 50  0000 R CNN
F 1 " TSX-3225 16.0000MF09Z-AC0 " H 8300 1200 50  0000 R CNN
F 2 "Crystal:Crystal_SMD_3225-4Pin_3.2x2.5mm_HandSoldering" H 7850 1450 50  0001 C CNN
F 3 "~" H 7850 1450 50  0001 C CNN
	1    7850 1450
	1    0    0    1   
$EndComp
Wire Wire Line
	8000 1400 8000 1450
Connection ~ 7700 1450
Wire Wire Line
	7700 1450 7700 1650
Connection ~ 8000 1450
Wire Wire Line
	8000 1450 8000 1650
Wire Wire Line
	7850 1650 7850 1850
Wire Wire Line
	7850 1250 7350 1250
Wire Wire Line
	7350 1250 7350 1350
$Comp
L power:GND #PWR0147
U 1 1 5C7A2538
P 7350 1350
F 0 "#PWR0147" H 7350 1100 50  0001 C CNN
F 1 "GND" H 7355 1177 50  0000 C CNN
F 2 "" H 7350 1350 50  0001 C CNN
F 3 "" H 7350 1350 50  0001 C CNN
	1    7350 1350
	1    0    0    -1  
$EndComp
Wire Wire Line
	7700 1200 8500 1200
Wire Wire Line
	8500 1200 8500 1300
Wire Wire Line
	8500 1300 8700 1300
Wire Wire Line
	7700 1200 7700 1450
Text Notes 8250 2550 0    50   ~ 0
internal pullup
$EndSCHEMATC
